^C:\USERS\NILSK\DOCUMENTS\GIT\SPIKE13\SPIKE13\INVENTORYTEST\STDAFX.CPP
/c /I"C:\PROGRAM FILES (X86)\MICROSOFT VISUAL STUDIO 14.0\VC\UNITTEST\INCLUDE" /Zi /nologo /W3 /WX- /O2 /Oi /Oy- /GL /D WIN32 /D NDEBUG /D _WINDLL /D _UNICODE /D UNICODE /Gm- /EHsc /MD /GS /Gy /fp:precise /Zc:wchar_t /Zc:forScope /Zc:inline /Yc"stdafx.h" /Fp"RELEASE\INVENTORYTEST.PCH" /Fo"RELEASE\\" /Fd"RELEASE\VC140.PDB" /Gd /TP /analyze- /FC C:\USERS\NILSK\DOCUMENTS\GIT\SPIKE13\SPIKE13\INVENTORYTEST\STDAFX.CPP
^C:\USERS\NILSK\DOCUMENTS\GIT\SPIKE13\SPIKE13\INVENTORYTEST\INVENTORYTEST.CPP
/c /I"C:\PROGRAM FILES (X86)\MICROSOFT VISUAL STUDIO 14.0\VC\UNITTEST\INCLUDE" /Zi /nologo /W3 /WX- /O2 /Oi /Oy- /GL /D WIN32 /D NDEBUG /D _WINDLL /D _UNICODE /D UNICODE /Gm- /EHsc /MD /GS /Gy /fp:precise /Zc:wchar_t /Zc:forScope /Zc:inline /Yu"stdafx.h" /Fp"RELEASE\INVENTORYTEST.PCH" /Fo"RELEASE\\" /Fd"RELEASE\VC140.PDB" /Gd /TP /analyze- /FC C:\USERS\NILSK\DOCUMENTS\GIT\SPIKE13\SPIKE13\INVENTORYTEST\INVENTORYTEST.CPP
