^C:\USERS\NILSK\DOCUMENTS\GIT\SPIKE13\SPIKE13\SPIKE13\STDAFX.CPP
/c /I"C:\PROGRAM FILES (X86)\MICROSOFT VISUAL STUDIO 14.0\VC\UNITTEST\INCLUDE" /ZI /nologo /W3 /WX- /Od /Oy- /D WIN32 /D _DEBUG /D _WINDLL /D _UNICODE /D UNICODE /Gm /EHsc /RTC1 /MDd /GS /fp:precise /Zc:wchar_t /Zc:forScope /Zc:inline /Yc"stdafx.h" /Fp"DEBUG\GRIDWORLDTEST.PCH" /Fo"DEBUG\\" /Fd"DEBUG\VC140.PDB" /Gd /TP /analyze- /FC C:\USERS\NILSK\DOCUMENTS\GIT\SPIKE13\SPIKE13\SPIKE13\STDAFX.CPP
^C:\USERS\NILSK\DOCUMENTS\GIT\SPIKE13\SPIKE13\SPIKE13\GRIDWORLDTEST.CPP
/c /I"C:\PROGRAM FILES (X86)\MICROSOFT VISUAL STUDIO 14.0\VC\UNITTEST\INCLUDE" /ZI /nologo /W3 /WX- /Od /Oy- /D WIN32 /D _DEBUG /D _WINDLL /D _UNICODE /D UNICODE /Gm /EHsc /RTC1 /MDd /GS /fp:precise /Zc:wchar_t /Zc:forScope /Zc:inline /Yu"stdafx.h" /Fp"DEBUG\GRIDWORLDTEST.PCH" /Fo"DEBUG\\" /Fd"DEBUG\VC140.PDB" /Gd /TP /analyze- /FC C:\USERS\NILSK\DOCUMENTS\GIT\SPIKE13\SPIKE13\SPIKE13\GRIDWORLDTEST.CPP
