^C:\Users\NilsK\Documents\git\spike13\Spike13\Spike3Test\Spike3Test.vcxproj
C:\Users\NilsK\Documents\git\spike13\Spike13\Debug\Spike7Test.lib
C:\Users\NilsK\Documents\git\spike13\Spike13\Debug\Spike7Test.exp
